1;ONLINE;SOFTWARE;Python moderno para la Bioinformatica;Online;21/02/2020;
2;PRESENCIAL;SOFTWARE;Python moderno para la Bioinformatica;INS Rovençana;22/02/2020;
3;ONLINE;BIOINFORMATICA;Genetics and Next Generation Sequencing for Bioinformatics;Online;23/02/2020;
4;PRESENCIAL;BIOINFORMATICA;Genetics and Next Generation Sequencing for Bioinformatics;INS Rovençana;24/03/2020;