1;57;55-59;70;168;24.80;OSTEOPENIA;12;NO;NO_CONSTA;
2;46;45-49;53;152;22.94;OSTEOPENIA;13;NO;NO_CONSTA;
3;45;45-49;64;158;25.64;NORMAL;14;NO;NO_CONSTA;
4;53;50-54;78;161;30.09;OSTEOPENIA;10;SI;NATURAL;
5;46;45-49;56;157;22.72;NORMAL;13;NO;NO_CONSTA;
6;45;45-49;63;170;21.97;OSTEOPOROSI;14;NO;NO_CONSTA;